fanucchi.project1
…
join3 %>% summarise(max(pop))

## # A tibble: 1 x 1
##   `max(pop)`
##        <int>
## 1 1386395000

join3 %>% group_by(country, populated) %>% summarise(max(motor_count), 
    .groups = "rowwise")

## # A tibble: 63 x 3
## # Rowwise:  country, populated
##    country    populated `max(motor_count)`
##    <chr>      <chr>                  <int>
##  1 Algeria    moderate               60606
##  2 Argentina  moderate              828771
##  3 Australia  moderate              475000
##  4 Austria    light                 253279
##  5 Azerbaijan light                   2145
##  6 Bangladesh dense                    580
##  7 Bangladesh moderate                   0
##  8 Belarus    light                  40100
##  9 Belgium    light                1248290
## 10 Belgium    moderate             1033294
## # … with 53 more rows
…
