fanucchiproject2
…
movies<-read_csv("https://vincentarelbundock.github.io/Rdatasets/csv/ggplot2movies/movies.csv")
mov <-movies %>% na.omit() %>% select(-1, -7, -8, -9, -10, -11, -12, -13, -14, -15, -16, -17)
mov <-subset(mov, mov$Short !=1) 
mov <- mov %>% select(-13)
mov <- subset(mov, mov$Documentary !=1)
mov <- mov %>% select(-11)
movnot <- mov %>% select(-1)

The data set that I chose to do project 2 is based on the statistics and information IMDB has on a set of movies from 1938-2005. The information I thought was important to keep was the year the movie was made, the length of the movie, the budget of the movie, what IMDB users rate the movie 1-10, and the MPAA rating. There are 1790 movies in the condensed data set total.

1. (15 pts) Perform a MANOVA testing whether any of your numeric variables (or a subset of them, if including them all is unreasonable or doesn’t make sense) show a mean difference across levels of one of your categorical variables (3). If they do, perform univariate ANOVAs to find response(s) showing a mean difference across groups (3), and perform post-hoc t tests to find which groups differ (3). Discuss the number of tests you have performed, calculate the probability of at least one type I error (if unadjusted), and adjust the significance level accordingly (bonferroni correction) before discussing significant differences (3). Briefly discuss some of the MANOVA assumptions and whether or not they are likely to have been met here (no need for anything too in-depth) (2).

movnot

## # A tibble: 1,790 x 10
## year length budget rating mpaa Action Animation Comedy
Drama Romance
## <dbl> <dbl> <dbl> <dbl> <chr> <dbl> <dbl> <dbl> <dbl>
<dbl>
## 1 1997 113 23000000 4.8 PG-13 0 0 1 0 1
## 2 1999 97 16000000 6.7 PG-13 0 0 1 0 1
## 3 2002 98 1100000 5.6 R 0 0 1 0 0
## 4 2004 98 37000000 6.4 PG-13 0 0 1 1 1
## 5 1999 102 85000000 6.1 R 1 0 0 0 0
## 6 2001 120 42000000 6.1 R 0 0 0 1 0
## 7 1972 180 4000000 7.3 PG 0 0 0 1 0
## 8 2003 107 76000000 5.1 PG-13 1 0 0 0 0
## 9 1999 101 6000000 5.4 R 0 0 1 1 0
## 10 2000 99 26000000 2.5 R 0 0 1 0 0
## # … with 1,780 more rows
…
